<?xml version="1.0" standalone="no"?>
<!DOCTYPE svg PUBLIC "-//W3C//DTD SVG 20010904//EN"
 "http://www.w3.org/TR/2001/REC-SVG-20010904/DTD/svg10.dtd">
<svg version="1.0" xmlns="http://www.w3.org/2000/svg"
 width="300.000000pt" height="312.000000pt" viewBox="0 0 300.000000 312.000000"
 preserveAspectRatio="xMidYMid meet">

<g transform="translate(0.000000,312.000000) scale(0.100000,-0.100000)"
fill="#000000" stroke="none">
<path d="M1485 2944 c-29 -32 -29 -31 -10 -77 14 -35 14 -36 -13 -59 -43 -36
-47 -46 -52 -153 -6 -114 -23 -135 -28 -32 l-3 67 -59 48 c-62 49 -70 69 -48
117 10 22 8 30 -9 53 -27 37 -69 36 -97 -1 -20 -27 -20 -29 -3 -58 9 -17 17
-42 17 -55 0 -22 -3 -23 -20 -14 -21 11 -57 -1 -72 -24 -25 -37 8 -96 53 -96
10 0 32 -12 49 -26 23 -20 30 -34 28 -53 l-3 -26 -106 -3 c-103 -3 -107 -3
-135 -33 l-29 -30 0 -290 0 -289 -30 0 c-17 0 -41 -7 -53 -16 -45 -31 -20
-139 42 -179 24 -16 226 -19 1085 -15 70 0 75 2 107 34 31 31 34 39 34 93 0
54 -2 61 -25 71 -14 7 -37 12 -51 12 l-25 0 1 103 c1 56 1 187 1 290 l-1 189
-29 29 c-29 29 -31 29 -140 29 l-111 0 0 33 c0 39 42 77 85 77 29 0 65 32 65
58 0 10 -7 28 -16 41 -13 18 -24 22 -51 19 -38 -5 -37 -8 -18 87 5 23 1 36
-15 53 -39 42 -93 19 -94 -41 l-1 -35 -29 15 c-27 14 -29 14 -70 -29 -22 -24
-50 -50 -61 -58 -17 -13 -17 -11 3 14 12 16 22 41 22 55 0 15 5 32 11 38 24
24 -19 93 -59 93 -7 0 -24 -12 -37 -26z m75 -23 c10 -21 4 -51 -11 -51 -5 0
-9 -15 -9 -33 0 -27 -8 -40 -40 -66 l-41 -32 3 -107 c3 -105 3 -107 27 -107
24 0 24 1 22 91 l-2 92 55 43 c31 24 56 49 56 55 0 19 28 36 49 29 45 -14 30
-81 -17 -72 -20 4 -37 -4 -69 -30 l-43 -35 0 -88 0 -87 38 2 37 3 3 75 3 76
64 51 c69 55 82 85 49 121 -18 20 -12 54 11 63 39 14 69 -32 41 -63 -9 -10
-16 -33 -16 -52 0 -31 -7 -41 -65 -88 l-66 -52 3 -67 c3 -64 4 -67 28 -67 24
0 25 2 24 58 l-1 58 52 36 c28 20 56 46 61 57 19 45 85 17 68 -28 -7 -18 -39
-30 -54 -21 -5 3 -30 -8 -55 -26 -45 -32 -46 -34 -43 -82 l3 -48 122 -2 c102
-2 125 -5 140 -20 16 -16 18 -46 21 -322 l3 -305 49 0 50 0 0 -39 c0 -56 -15
-88 -49 -106 -26 -13 -102 -15 -570 -15 -319 0 -550 4 -565 10 -34 13 -54 47
-58 100 l-3 45 53 3 52 3 0 304 0 304 27 21 c25 20 38 21 135 18 l108 -3 0 51
c0 48 -3 54 -36 79 -20 16 -48 28 -62 29 -32 1 -51 29 -36 54 22 34 74 22 74
-18 0 -9 20 -31 45 -49 42 -30 44 -34 47 -88 3 -53 5 -56 31 -59 l27 -3 0 72
0 72 -65 50 c-58 45 -64 53 -65 87 0 20 -4 40 -10 43 -17 11 -11 54 10 65 16
8 24 6 40 -10 20 -20 20 -23 6 -45 -31 -48 -21 -76 49 -130 l64 -49 3 -75 3
-75 35 0 35 0 0 113 0 113 40 33 c40 34 51 67 28 86 -17 14 -17 56 0 62 26 11
47 6 57 -12z m52 -224 c-18 -19 -22 -35 -22 -85 0 -43 -4 -62 -12 -62 -10 0
-12 20 -10 73 3 67 6 75 30 89 35 21 41 14 14 -15z m-367 3 c3 -6 -1 -7 -9 -4
-18 7 -21 14 -7 14 6 0 13 -4 16 -10z m51 -91 c1 -47 1 -48 -3 -9 -2 24 -10
51 -16 59 -10 11 -9 13 3 9 11 -3 15 -20 16 -59z"/>
<path d="M1516 2912 c-3 -6 -1 -14 5 -17 15 -10 25 3 12 16 -7 7 -13 7 -17 1z"/>
<path d="M1205 2881 c-6 -11 9 -23 19 -14 9 9 7 23 -3 23 -6 0 -12 -4 -16 -9z"/>
<path d="M1750 2875 c0 -8 5 -15 10 -15 6 0 10 7 10 15 0 8 -4 15 -10 15 -5 0
-10 -7 -10 -15z"/>
<path d="M1642 2799 c2 -6 8 -10 13 -10 5 0 11 4 13 10 2 6 -4 11 -13 11 -9 0
-15 -5 -13 -11z"/>
<path d="M1125 2720 c3 -5 10 -10 16 -10 5 0 9 5 9 10 0 6 -7 10 -16 10 -8 0
-12 -4 -9 -10z"/>
<path d="M1830 2720 c0 -5 5 -10 10 -10 6 0 10 5 10 10 0 6 -4 10 -10 10 -5 0
-10 -4 -10 -10z"/>
<path d="M1013 2493 c-10 -4 -13 -75 -13 -309 l0 -304 490 0 490 0 0 298 c0
218 -3 301 -12 310 -9 9 -128 12 -478 11 -256 0 -471 -3 -477 -6z m32 -33 c-3
-5 -10 -10 -16 -10 -5 0 -9 5 -9 10 0 6 7 10 16 10 8 0 12 -4 9 -10z m883
-267 l-3 -258 -437 -3 -438 -2 0 32 c-1 146 -1 393 -1 436 l1 52 440 0 440 0
-2 -257z m-888 -273 c0 -5 -4 -10 -10 -10 -5 0 -10 5 -10 10 0 6 5 10 10 10 6
0 10 -4 10 -10z m910 0 c0 -5 -5 -10 -11 -10 -5 0 -7 5 -4 10 3 6 8 10 11 10
2 0 4 -4 4 -10z"/>
<path d="M1072 2190 c2 -127 6 -230 11 -230 4 0 189 0 412 0 l405 0 0 230 0
230 -90 0 -90 0 0 -33 c0 -28 7 -39 43 -64 24 -17 56 -33 71 -35 43 -5 56 -32
30 -59 -18 -17 -25 -19 -43 -10 -11 7 -21 19 -21 29 0 9 -25 34 -54 55 -53 36
-54 39 -51 77 4 38 2 40 -26 40 -29 0 -29 -1 -29 -57 l0 -58 65 -45 c59 -41
65 -48 65 -81 0 -21 7 -42 15 -49 20 -16 16 -49 -7 -64 -37 -23 -77 36 -43 64
8 7 15 25 15 40 0 22 -12 35 -65 71 l-65 44 0 68 0 67 -40 0 -40 0 0 -107 0
-108 40 -29 c31 -23 40 -37 40 -60 0 -17 7 -39 15 -50 19 -25 3 -56 -30 -56
-33 0 -49 31 -30 56 26 34 18 65 -26 102 l-40 35 3 108 3 109 -27 0 -28 0 0
-99 0 -99 -40 -32 c-22 -17 -40 -40 -40 -50 0 -23 -36 -36 -55 -20 -34 28 -13
70 35 70 10 0 32 11 48 25 28 24 29 27 30 115 l0 90 -39 0 -39 0 0 -60 0 -59
-65 -53 c-53 -42 -65 -57 -65 -81 0 -15 7 -35 15 -43 19 -20 19 -29 -1 -49
-33 -32 -81 6 -56 45 6 11 12 35 12 53 0 29 8 40 65 85 l65 53 0 54 c0 54 0
55 -30 55 -29 0 -30 -2 -30 -42 -1 -39 -5 -46 -45 -76 -25 -18 -45 -39 -45
-46 0 -7 -9 -21 -19 -30 -28 -25 -63 -5 -59 32 2 21 9 28 34 32 17 3 47 16 67
30 31 21 37 31 37 63 l0 37 -85 0 -85 0 2 -230z m144 189 c3 -21 -41 -54 -83
-62 l-33 -6 0 45 0 45 57 -3 c43 -2 57 -7 59 -19z m194 -56 c0 -72 -16 -103
-54 -103 -24 0 -76 -47 -76 -70 0 -25 38 -60 65 -60 26 0 64 31 66 53 1 19 79
82 79 64 0 -8 16 -30 35 -48 37 -36 42 -53 23 -94 -10 -22 -8 -30 11 -55 l22
-30 -241 0 -240 0 0 108 0 107 40 0 c46 0 50 -12 23 -70 -16 -34 -16 -35 7
-60 32 -34 75 -31 98 8 15 25 16 30 2 55 -9 15 -14 34 -12 43 1 9 32 42 68 74
52 45 65 63 64 84 -4 49 0 72 10 66 6 -3 10 -36 10 -72z m180 22 c0 -61 7 -71
89 -129 40 -29 55 -66 31 -81 -16 -10 -12 -57 7 -77 39 -43 110 -10 98 46 -19
96 -21 91 25 92 l41 0 -3 -105 -3 -106 -123 -3 -124 -3 21 27 c25 31 26 52 6
78 -8 11 -15 32 -15 47 0 20 -10 36 -35 55 l-35 26 0 94 c0 56 4 94 10 94 6 0
10 -25 10 -55z m288 8 l3 -42 -38 6 c-63 10 -117 61 -80 77 6 3 35 4 62 3 l50
-2 3 -42z m-576 -2 c-2 -16 -13 -38 -23 -47 -18 -16 -19 -16 -13 -1 3 9 10 17
15 17 5 0 9 16 9 36 0 19 4 33 8 30 5 -3 7 -19 4 -35z m413 -56 c39 -32 29
-32 -15 0 -19 14 -30 25 -24 25 5 -1 23 -12 39 -25z m-465 -8 c0 -2 -10 -12
-22 -23 l-23 -19 19 23 c18 21 26 27 26 19z"/>
<path d="M1127 2264 c-8 -8 1 -24 14 -24 5 0 9 7 9 15 0 15 -12 20 -23 9z"/>
<path d="M1827 2264 c-8 -8 1 -24 14 -24 5 0 9 7 9 15 0 15 -12 20 -23 9z"/>
<path d="M1330 2150 c0 -5 7 -10 15 -10 8 0 15 5 15 10 0 6 -7 10 -15 10 -8 0
-15 -4 -15 -10z"/>
<path d="M1202 2099 c2 -6 8 -10 13 -10 5 0 11 4 13 10 2 6 -4 11 -13 11 -9 0
-15 -5 -13 -11z"/>
<path d="M1750 2100 c0 -5 5 -10 10 -10 6 0 10 5 10 10 0 6 -4 10 -10 10 -5 0
-10 -4 -10 -10z"/>
<path d="M1592 2049 c2 -6 8 -10 13 -10 5 0 11 4 13 10 2 6 -4 11 -13 11 -9 0
-15 -5 -13 -11z"/>
<path d="M890 1826 c0 -13 9 -35 21 -50 l20 -26 554 0 c615 0 588 -3 599 68
l4 32 -207 0 -208 0 -23 -25 c-23 -24 -28 -25 -147 -25 -119 0 -125 1 -149 25
l-25 25 -219 0 -220 0 0 -24z m450 -25 l26 -26 -150 1 c-298 3 -306 4 -293 38
6 14 30 16 199 15 l192 -2 26 -26z m709 20 c12 -8 12 -12 2 -25 -11 -14 -44
-16 -213 -16 l-199 0 27 25 c27 25 29 25 198 25 94 0 177 -4 185 -9z"/>
<path d="M1375 1840 c4 -6 58 -10 130 -10 72 0 126 4 130 10 4 6 -42 10 -130
10 -88 0 -134 -4 -130 -10z"/>
<path d="M383 1430 c-210 -95 -218 -411 -12 -515 58 -30 138 -33 199 -9 31 13
44 14 53 5 17 -17 72 -13 90 7 14 15 17 41 17 136 0 133 -7 156 -50 156 -17 0
-30 5 -30 11 0 5 8 9 18 7 65 -10 54 85 -18 160 -57 60 -185 80 -267 42z m207
-30 c43 -22 75 -56 89 -93 20 -51 15 -57 -38 -57 -41 0 -51 4 -56 20 -17 53
-103 77 -164 45 -61 -31 -87 -173 -45 -246 43 -74 148 -88 199 -27 14 16 25
38 25 49 0 16 -7 19 -55 19 l-55 0 0 40 0 40 105 0 105 0 0 -135 0 -135 -35 0
c-30 0 -35 3 -35 24 0 29 -15 43 -23 21 -10 -23 -83 -55 -129 -55 -91 0 -191
74 -217 159 -6 21 -11 70 -11 109 0 87 34 159 96 204 66 48 169 55 244 18z
m-71 -101 c17 -6 31 -15 31 -19 0 -5 12 -22 26 -39 l26 -31 -54 0 c-65 0 -78
-11 -78 -65 0 -46 18 -62 75 -67 l30 -3 -22 -22 c-34 -34 -93 -31 -135 6 -28
25 -32 35 -35 92 -5 74 16 126 57 146 31 16 39 16 79 2z"/>
<path d="M2419 1427 c-55 -26 -70 -41 -96 -90 l-19 -38 -17 39 c-10 23 -35 51
-59 68 -40 28 -45 29 -188 32 -114 3 -149 1 -157 -10 -7 -8 -14 -100 -18 -251
-8 -279 -9 -277 80 -277 63 0 88 21 85 72 -1 18 -2 48 -1 66 1 32 1 32 54 32
28 0 69 5 90 11 54 15 111 69 126 121 l13 42 13 -32 c17 -40 90 -87 157 -102
111 -23 150 -64 80 -82 -47 -12 -100 6 -108 37 -8 34 -27 46 -72 47 -81 1 -97
-17 -77 -87 25 -86 108 -135 228 -135 124 0 211 62 217 155 5 73 0 88 -42 130
-37 36 -56 45 -129 65 -102 26 -114 33 -106 54 11 28 107 19 107 -10 0 -42
112 -61 145 -24 21 24 15 59 -21 112 -52 74 -190 102 -285 55z m197 -17 c42
-16 83 -61 90 -98 4 -20 5 -39 3 -41 -2 -2 -25 -4 -52 -5 -32 -1 -47 3 -47 12
0 7 -11 24 -25 37 -47 48 -150 24 -143 -33 3 -24 11 -30 78 -50 41 -13 95 -31
120 -40 117 -45 121 -196 8 -255 -54 -27 -144 -33 -205 -13 -70 23 -123 83
-123 140 0 24 3 26 50 26 45 0 50 -2 56 -25 10 -41 50 -65 108 -65 56 0 80 12
91 47 10 34 -23 58 -116 82 -135 37 -175 72 -173 153 2 66 56 122 134 137 45
9 107 5 146 -9z m-408 -20 c101 -62 96 -220 -8 -272 -25 -13 -59 -18 -117 -18
l-83 0 0 -90 0 -90 -55 0 -55 0 0 245 0 245 143 0 c124 0 146 -3 175 -20z"/>
<path d="M2000 1255 l0 -78 72 5 c59 5 75 10 90 28 23 29 23 62 -1 91 -16 19
-30 24 -90 27 l-71 4 0 -77z m138 33 c18 -18 15 -56 -5 -67 -17 -8 -62 -15
-90 -12 -8 1 -13 17 -13 46 l0 45 48 0 c26 0 53 -5 60 -12z"/>
<path d="M1057 1422 c-15 -16 -17 -49 -17 -258 0 -173 3 -243 12 -252 16 -16
110 -16 126 0 8 8 12 45 12 102 0 50 4 86 8 81 5 -6 21 -46 36 -90 16 -44 33
-86 38 -92 6 -7 32 -13 59 -13 58 0 64 7 105 130 l29 85 3 -95 c3 -108 10
-120 75 -120 80 0 77 -10 77 264 0 288 5 276 -107 276 -54 0 -73 -4 -85 -17
-9 -10 -32 -71 -52 -135 -20 -65 -40 -118 -44 -118 -4 0 -24 53 -46 118 -21
64 -45 125 -54 135 -22 25 -152 25 -175 -1z m219 -175 c28 -87 54 -160 56
-163 3 -2 28 70 57 161 l52 165 79 0 80 0 0 -245 -1 -245 -55 0 -56 0 4 174
c1 96 2 173 0 171 -2 -1 -29 -79 -61 -171 l-57 -169 -44 0 -43 0 -58 168 c-31
93 -59 170 -61 172 -2 2 -2 -75 0 -171 l4 -174 -54 0 -53 0 0 245 0 246 79 -3
79 -3 53 -158z"/>
<path d="M1677 1422 c-15 -16 -17 -49 -17 -254 0 -268 0 -267 82 -271 78 -3
78 -4 78 277 0 232 -1 246 -19 256 -33 17 -106 12 -124 -8z m123 -257 l0 -245
-55 0 -55 0 0 245 0 245 55 0 55 0 0 -245z"/>
<path d="M760 1161 c-16 -31 -12 -86 8 -103 23 -21 189 -25 214 -6 23 17 29
82 11 108 -13 18 -25 20 -118 20 -93 0 -105 -2 -115 -19z m222 -48 l3 -43
-106 0 -105 0 2 43 c2 23 3 42 3 42 1 0 46 0 100 0 l99 0 4 -42z"/>
<path d="M62 678 c-8 -8 -12 -46 -12 -103 0 -77 3 -95 19 -109 17 -16 19 -15
36 10 l17 26 14 -21 c18 -25 31 -26 56 -5 15 14 20 15 34 3 25 -20 81 -19 100
3 23 24 76 24 98 -1 12 -13 29 -19 51 -18 46 3 62 20 57 59 l-4 33 41 -46 c35
-41 45 -46 80 -46 27 0 46 6 57 18 17 19 84 27 84 11 0 -4 9 -13 21 -20 18
-11 24 -11 38 2 11 10 21 12 27 6 5 -5 28 -13 52 -18 36 -9 47 -7 75 12 31 21
33 21 47 4 17 -20 82 -29 121 -16 15 5 44 5 67 -1 35 -7 49 -5 84 13 119 59
75 216 -60 216 -21 0 -43 -5 -50 -12 -9 -9 -15 -9 -24 0 -7 7 -38 12 -70 12
-48 0 -59 -3 -68 -21 -11 -20 -13 -20 -30 -4 -11 10 -39 20 -63 22 -38 5 -48
1 -80 -26 -20 -18 -39 -42 -43 -54 -6 -18 -10 -15 -31 26 -13 27 -31 51 -39
54 -21 8 -50 -22 -71 -73 -10 -24 -21 -44 -25 -44 -5 0 -8 22 -8 49 0 81 -48
95 -64 18 l-7 -32 -39 45 c-33 38 -42 43 -57 34 -11 -7 -20 -28 -23 -57 -3
-25 -8 -49 -11 -52 -4 -3 -14 14 -23 39 -36 93 -79 94 -121 3 -24 -53 -30 -49
-27 19 0 12 -8 30 -19 40 -26 24 -47 11 -76 -45 -12 -24 -24 -45 -26 -48 -2
-2 -17 21 -31 52 -28 55 -49 68 -74 43z m70 -88 l34 -80 33 80 c46 110 61 107
61 -15 0 -57 -4 -95 -10 -95 -6 0 -10 33 -10 78 l0 77 -26 -60 c-14 -33 -28
-68 -31 -77 -10 -35 -28 -17 -60 60 l-32 77 0 -77 c-1 -45 -5 -78 -11 -78 -6
0 -10 38 -10 95 0 121 15 125 62 15z m294 -15 c30 -67 38 -95 28 -95 -7 0 -16
11 -20 25 -6 23 -11 25 -59 25 -48 0 -53 -2 -59 -25 -6 -22 -26 -36 -26 -17 0
18 76 182 85 182 6 0 29 -43 51 -95z m136 19 l53 -75 3 75 c4 110 22 94 22
-19 0 -69 -3 -95 -12 -95 -7 0 -35 34 -63 76 l-50 76 -3 -76 c-4 -110 -22 -94
-22 19 0 56 4 95 10 95 5 0 33 -34 62 -76z m238 -10 c19 -48 37 -91 38 -95 8
-21 -16 -6 -26 16 -10 22 -18 25 -62 25 -45 0 -50 -3 -56 -25 -3 -14 -12 -25
-19 -25 -9 0 0 31 28 95 22 52 45 95 51 95 6 0 27 -39 46 -86z m189 71 c28
-14 49 -45 31 -45 -6 0 -19 9 -30 20 -43 43 -110 9 -110 -55 0 -67 67 -98 113
-52 l22 22 -42 3 c-60 4 -54 22 7 22 44 0 50 -3 50 -20 0 -29 -44 -70 -75 -70
-43 0 -82 27 -94 63 -14 42 -3 76 35 106 31 25 55 26 93 6z m191 3 c0 -9 -16
-13 -47 -13 -45 0 -47 -1 -47 -30 0 -29 1 -29 42 -27 31 3 42 0 42 -11 0 -10
-12 -13 -41 -13 -39 1 -41 0 -44 -31 l-3 -33 49 0 c27 0 49 -4 49 -10 0 -6
-27 -10 -60 -10 l-60 0 0 95 0 95 60 0 c41 0 60 -4 60 -12z m135 -2 c37 -16
55 -42 55 -81 0 -56 -47 -95 -115 -95 l-35 0 0 95 0 95 30 0 c17 0 46 -6 65
-14z m-125 -48 c0 -17 -3 -19 -12 -10 -7 7 -23 13 -37 13 -21 1 -20 3 9 9 19
4 36 8 38 9 1 0 2 -9 2 -21z m-215 2 c3 -5 -2 -10 -13 -10 -10 0 -28 -9 -40
-20 -21 -20 -22 -20 -22 -2 0 10 5 23 12 30 15 15 54 16 63 2z m218 -76 c3
-18 1 -22 -6 -15 -6 6 -25 12 -41 12 -28 2 -28 2 -6 6 14 3 29 9 35 14 12 12
12 12 18 -17z"/>
<path d="M362 614 c-5 -16 -13 -37 -17 -46 -6 -15 -1 -18 30 -18 33 0 36 2 29
23 -3 12 -12 33 -19 46 l-12 24 -11 -29z"/>
<path d="M733 599 l-19 -44 34 -3 c19 -2 36 -1 38 1 2 2 -4 23 -15 47 l-19 43
-19 -44z"/>
<path d="M1240 575 l0 -75 30 0 c54 0 93 55 74 105 -8 19 -55 45 -84 45 -18 0
-20 -6 -20 -75z m68 33 c24 -24 8 -78 -24 -78 -7 0 -13 19 -16 45 -2 36 0 45
12 45 9 0 21 -5 28 -12z"/>
<path d="M1456 670 c-14 -15 -20 -121 -10 -172 7 -35 40 -47 60 -21 7 10 13
34 13 53 -3 76 0 90 21 90 18 0 20 -7 20 -64 0 -73 6 -96 26 -96 25 0 44 43
44 102 0 43 4 58 14 58 22 0 38 27 31 50 -6 20 -13 21 -106 18 -75 -2 -103 -6
-113 -18z m34 -95 c0 -57 -4 -95 -10 -95 -6 0 -10 38 -10 95 0 57 4 95 10 95
6 0 10 -38 10 -95z m170 82 c0 -9 -10 -12 -30 -9 l-30 4 0 -86 c0 -51 -4 -86
-10 -86 -6 0 -10 35 -10 86 l0 86 -30 -4 c-20 -3 -30 0 -30 9 0 9 19 13 70 13
51 0 70 -4 70 -13z"/>
<path d="M1743 675 c-20 -22 -17 -189 3 -206 21 -18 48 0 52 35 3 19 9 26 25
26 13 0 33 7 45 16 22 15 22 14 22 -24 0 -46 22 -72 48 -55 9 5 19 19 22 31 5
21 6 20 29 -8 27 -35 56 -39 72 -9 6 12 14 17 18 12 24 -37 105 -43 145 -12
l27 21 20 -21 c26 -28 81 -28 107 -1 l19 20 18 -20 c14 -16 31 -20 81 -20 54
0 64 3 69 20 l6 20 26 -20 c39 -31 102 -27 136 8 48 50 21 108 -29 62 -33 -32
-78 -24 -82 13 -6 54 46 77 83 37 23 -26 39 -25 58 3 20 30 25 22 28 -51 2
-45 7 -66 20 -78 32 -29 49 -3 49 77 0 62 2 68 21 71 31 4 46 32 30 52 -16 19
-140 23 -159 4 -9 -9 -18 -9 -37 0 -38 18 -83 15 -114 -7 -27 -19 -27 -19 -39
0 -10 15 -24 19 -70 19 -32 0 -63 -5 -69 -11 -8 -8 -16 -7 -31 2 -35 22 -52
-3 -52 -77 0 -34 -4 -66 -10 -69 -5 -3 -10 -2 -10 3 0 5 -13 23 -30 40 -16 18
-30 38 -30 46 0 26 -59 66 -97 66 -35 0 -93 -27 -93 -43 0 -5 -14 3 -31 17
-24 20 -41 26 -79 26 -30 0 -52 -5 -60 -15 -11 -13 -15 -13 -33 0 -27 19 -108
19 -124 0z m122 -25 c19 -16 20 -64 0 -80 -8 -6 -31 -14 -52 -17 -37 -5 -39
-6 -35 -39 3 -26 0 -34 -11 -34 -13 0 -16 16 -16 96 l0 96 49 -4 c27 -3 56
-11 65 -18z m140 10 c14 -5 28 -17 31 -25 10 -25 -5 -63 -26 -70 -20 -6 -19
-8 11 -46 21 -26 26 -39 16 -39 -8 0 -27 18 -42 40 -16 22 -36 40 -46 40 -15
0 -19 -8 -19 -40 0 -22 -4 -40 -10 -40 -6 0 -10 38 -10 95 l0 95 34 0 c19 0
46 -4 61 -10z m196 -5 c55 -29 65 -100 20 -146 -37 -37 -79 -38 -120 -3 -43
36 -44 93 -2 135 33 33 58 36 102 14z m181 -62 c-4 -83 -19 -113 -55 -113 -28
0 -57 29 -57 57 0 29 17 31 22 2 4 -31 32 -46 52 -30 12 10 16 32 16 87 0 53
4 74 13 74 9 0 11 -20 9 -77z m166 65 c-3 -8 -21 -11 -51 -9 l-47 3 0 -35 0
-35 46 6 c37 4 46 2 42 -9 -3 -9 -18 -13 -46 -10 l-42 3 0 -36 0 -36 50 0 c28
0 50 -4 50 -10 0 -6 -27 -10 -60 -10 l-60 0 0 95 0 95 61 0 c43 0 59 -4 57
-12z m175 -20 c18 -18 27 -33 20 -35 -6 -2 -23 7 -37 21 -14 15 -34 26 -44 26
-30 0 -61 -31 -68 -67 -5 -26 -1 -37 19 -57 34 -34 70 -33 97 1 14 18 24 23
31 16 15 -15 -46 -63 -80 -63 -38 0 -78 33 -86 71 -13 59 33 118 93 119 13 0
37 -14 55 -32z m177 19 c0 -9 -10 -12 -30 -9 l-30 4 0 -86 c0 -51 -4 -86 -10
-86 -6 0 -10 35 -10 86 l0 86 -30 -4 c-20 -3 -30 0 -30 9 0 9 19 13 70 13 51
0 70 -4 70 -13z m-345 -46 c-3 -6 -11 -8 -17 -5 -6 4 -5 9 3 15 16 10 23 4 14
-10z m-5 -74 c0 -9 -11 -12 -37 -8 l-38 5 35 7 c19 3 36 7 38 8 1 0 2 -5 2
-12z"/>
<path d="M1778 610 c-3 -36 -1 -40 20 -40 34 0 62 18 62 40 0 21 -28 40 -58
40 -16 0 -21 -8 -24 -40z m52 0 c0 -5 -7 -10 -15 -10 -8 0 -15 5 -15 10 0 6 7
10 15 10 8 0 15 -4 15 -10z"/>
<path d="M1930 610 c0 -44 13 -50 64 -30 51 19 23 70 -38 70 -24 0 -26 -4 -26
-40z m55 0 c3 -5 -1 -10 -9 -10 -9 0 -16 5 -16 10 0 6 4 10 9 10 6 0 13 -4 16
-10z"/>
<path d="M2116 629 c-50 -40 -22 -129 41 -129 32 0 73 43 73 75 0 30 -41 75
-68 75 -11 0 -31 -9 -46 -21z m72 -21 c7 -7 12 -21 12 -33 0 -47 -62 -63 -81
-21 -22 47 33 90 69 54z"/>
<path d="M897 352 c-31 -32 -33 -49 -12 -79 13 -18 13 -22 0 -33 -21 -18 -19
-37 10 -65 28 -29 95 -35 115 -10 12 14 15 14 30 0 14 -12 37 -15 101 -14 91
3 109 10 109 42 0 19 3 18 29 -11 33 -35 52 -40 71 -17 10 12 9 20 -5 41 -15
23 -15 30 -4 51 13 24 14 23 44 -39 43 -91 65 -91 107 -1 l33 68 3 -62 c3 -72
21 -87 59 -51 16 15 27 19 31 12 24 -37 110 -48 143 -18 18 16 20 16 37 1 21
-19 111 -23 142 -7 19 10 53 3 45 -9 -10 -17 87 7 100 25 19 25 19 64 0 91
-13 18 -13 22 0 33 21 17 19 27 -10 55 -28 28 -70 32 -102 10 -18 -13 -22 -13
-33 0 -8 10 -31 15 -71 15 -47 0 -61 -4 -71 -19 -12 -19 -12 -19 -41 1 -35 25
-98 20 -132 -12 l-22 -21 -15 23 c-11 16 -25 22 -57 23 -41 1 -42 0 -67 -54
l-26 -54 -27 54 c-20 42 -30 53 -46 51 -24 -4 -36 -4 -98 4 -31 4 -53 2 -63
-7 -11 -9 -18 -9 -26 -1 -19 19 -118 15 -140 -5 -17 -15 -19 -15 -36 0 -29 26
-74 21 -105 -11z m103 -14 c14 -13 19 -23 12 -26 -7 -2 -19 4 -28 12 -17 18
-32 20 -52 7 -23 -14 -9 -44 25 -55 51 -17 69 -40 55 -70 -20 -44 -90 -46
-113 -4 -15 28 0 38 18 11 18 -26 55 -30 73 -8 16 19 0 40 -38 50 -53 13 -68
50 -35 87 22 24 54 23 83 -4z m170 6 c0 -14 -9 -16 -50 -12 l-50 5 0 -35 0
-35 45 5 c34 4 45 2 45 -9 0 -10 -10 -12 -45 -7 l-45 6 0 -36 0 -36 50 0 c28
0 50 -4 50 -10 0 -6 -27 -10 -60 -10 l-60 0 0 95 0 95 60 0 c49 0 60 -3 60
-16z m151 -13 c20 -24 15 -56 -12 -75 -18 -12 -18 -14 6 -46 29 -39 29 -40 13
-40 -7 1 -25 19 -40 40 -37 53 -58 53 -58 0 0 -22 -4 -40 -10 -40 -6 0 -10 39
-10 96 l0 97 47 -6 c31 -3 53 -12 64 -26z m84 -51 c17 -43 33 -76 36 -72 3 4
18 40 33 80 15 39 32 72 37 72 13 0 13 -1 -27 -100 -20 -49 -41 -90 -48 -90
-6 0 -26 38 -44 83 -18 45 -35 88 -38 95 -4 6 0 12 8 12 8 0 26 -32 43 -80z
m165 -15 c0 -57 -4 -95 -10 -95 -6 0 -10 38 -10 95 0 57 4 95 10 95 6 0 10
-38 10 -95z m169 80 c28 -14 47 -42 36 -53 -2 -3 -16 7 -29 21 -31 34 -60 34
-91 2 -31 -30 -32 -71 -3 -102 29 -31 71 -30 96 2 22 28 32 32 32 11 0 -21
-49 -56 -77 -56 -29 0 -63 17 -80 39 -18 23 -16 83 3 109 28 41 69 50 113 27z
m191 -1 c0 -12 -10 -15 -47 -13 -48 3 -48 3 -51 -30 l-3 -34 45 5 c35 4 46 2
46 -9 0 -10 -11 -13 -42 -11 -42 3 -43 2 -46 -29 l-3 -33 50 0 c28 0 51 -4 51
-10 0 -6 -27 -10 -60 -10 l-59 0 0 95 0 95 59 0 c48 0 60 -3 60 -16z m130 -2
c13 -10 20 -24 16 -30 -5 -8 -13 -5 -26 8 -24 24 -43 25 -60 5 -19 -23 -6 -40
39 -53 30 -10 42 -19 47 -38 8 -32 -20 -64 -56 -64 -27 0 -76 41 -63 53 11 12
23 8 23 -8 0 -22 48 -31 67 -12 22 22 10 44 -29 52 -43 9 -58 22 -58 51 0 24
33 54 61 54 9 0 27 -8 39 -18z m-880 -43 c0 -18 -2 -20 -15 -9 -13 11 -13 15
-3 21 18 12 18 12 18 -12z m558 -12 l22 -23 -24 -23 c-36 -34 -70 -25 -74 18
-5 53 38 69 76 28z m192 15 c0 -5 -13 -7 -30 -4 -16 2 -30 6 -30 8 0 2 14 4
30 4 17 0 30 -4 30 -8z m20 -62 c-8 -16 -20 -20 -53 -18 -36 1 -37 2 -10 5 17
2 37 11 43 19 18 21 32 17 20 -6z m-772 -25 c-1 -1 -21 1 -43 5 -38 7 -38 8
-8 9 17 0 35 7 40 14 5 9 9 7 11 -6 2 -10 2 -20 0 -22z"/>
<path d="M1230 299 c0 -37 1 -38 31 -34 38 5 52 17 47 41 -2 13 -15 21 -41 25
l-37 6 0 -38z m50 1 c0 -5 -7 -10 -15 -10 -8 0 -15 5 -15 10 0 6 7 10 15 10 8
0 15 -4 15 -10z"/>
</g>
</svg>
